C
C INPUT FOR SUSSIX_V4 ---17/09/1997---
C DETAILS ARE IN THE MAIN PROGRAM SUSSIX_V4.F
C

ISIX  = 0
NTOT  = 2
IANA  = 1
ICONV = 0
TURNS = 1 20000
NARM  = 100
ISTUN = 0 0.18 0.01 0.0
TUNES = 0.08 0.1 0.0
NSUS  = 0
IDAM  = 2
NTWIX = 1
IR    = 0
IMETH = 2
NRC   = 4
EPS   = 1.0000D-6
NLINE = 2
L,M,K =  1  0  0
L,M,K =  0  1  0
IDAMX = 2
NFIN  = 50
ISME  = 0
IUSME = 20
INV   = 0
IINV  = 25
ICF   = 0
IICF  = 35